[
    {
        "id": 1,
        "name": "Rick",
        "email": "moke@mokefruit.com"
    },
    {
        "id": 2,
        "name": "James",
        "email": "moke@mokefruit.com"
    },
    {
        "id": 3,
        "name": "Biatch",
        "email": "moke@mokefruit.com"
    }
]